{
  "server": {
    "port": 8090
  },
  "stateIdentifier": "master",
  "appHostName": "http://dev.adesk.ru:8090/",
  "pathToStorageFile": "/home/flowbot/",
  "logger": {
    "slack": {
      "channel": "CF4E7DA15",
      "token": "xoxb-8672434355-603143283107-1dlXUtYDFLzNP2kdvnTpqjCf"
    }
  },
  "trelloAuth": {
    "key": "0f9b51855eee640c2e9084dd55b8bf96",
    "token": "3d6a6de1c43a0721f90dab31bfdd0762847ae6a15a81e1a6abaae996ad426b7c"
  },
  "robotTrelloUserName": "antidaflowbot",
  "bitbucketAuth": {
    "key": "5Bzvfd6QJx5wHPZzhf",
    "secret": "etfFqa5nj8Wk98nL4F4Up9t2Aq2GpPAt"
  },
  "slackAuth": {
    "token": "xoxb-8672434355-603143283107-1dlXUtYDFLzNP2kdvnTpqjCf"
  },
  "projects": [
    {
      "name": "antida_flow",
      "productionBranchName": "master",
      "devServerBranchName": "dev",
      "board": {
        "id": "LhVa2KyT",
        "inReviewStatus": "Code Review",
        "stagingStatus": "Ready For Staging",
        "reopenedStatus": "To Do",
        "readyForTestingStatus": "Ready For Test",
        "doneStatus": "Done",
        "inMasterStatus": "Merged To Master",
        "inProductionStatus": "Production"
      },
      "slack": {
        "channel": "CF22MNBEG"
      },
      "bitbucket": {
        "repositoryName": "antida-flow",
        "repositoryAuthor": "antida-projects"
      },
      "jenkinsBuildDev": {
        "url": "example.com",
        "protocol": "https",
        "userName": "admin",
        "userToken": "11fc4a09ba595d158c18e9ec94297d5a1b",
        "jobName": "adesk-dev",
        "jobToken": "11fc4a09ba595d158c18e9ec94297d5a1b"
      },
      "users": [
        {
          "trelloUserName": "alexanderbogdanov8",
          "slackUserId": "UD445VBV2",
          "bitbucketAccount": "5b6b980de6dba529eefdb565"
        },
        {
          "trelloUserName": "dmitrytsvetkov5",
          "slackUserId": "T08KSCSAF",
          "bitbucketAccount": "5e2fc7a63940fb0cad6791a2"
        },
        {
          "trelloUserName": "user31756198",
          "slackUserId": "DT8JQ5JB1",
          "bitbucketAccount": "5aaf45132235812a623359a4"
        }
      ]
    },
    {
      "name": "adesk",
      "productionBranchName": "master",
      "devServerBranchName": "dev",
      "board": {
        "id": "Es6309PV",
        "inReviewStatus": "Code Review",
        "stagingStatus": "Ready For Staging",
        "reopenedStatus": "To Do",
        "readyForTestingStatus": "Ready For Testing",
        "doneStatus": "Done",
        "inMasterStatus": "Merged To Master",
        "inProductionStatus": "In Production"
      },
      "slack": {
        "channel": "C5FV5CVRN"
      },
      "bitbucket": {
        "repositoryName": "business",
        "repositoryAuthor": "rodionovstepan"
      },
      "jenkinsBuildDev": {
        "url": "ci.adesk.ru",
        "protocol": "https",
        "userName": "admin",
        "userToken": "11fc4a09ba595d158c18e9ec94297d5a1b",
        "jobName": "adesk-dev",
        "jobToken": "11fc4a09ba595d158c18e9ec94297d5a1b"
      },
      "users": [
        {
          "trelloUserName": "user41636470",
          "slackUserId": "UCKTVQN7L",
          "bitbucketAccount": "5b8cb7689159a62baaa37b65"
        },
        {
          "trelloUserName": "user46313547",
          "slackUserId": "UL6RVKMLN",
          "bitbucketAccount": "5d1da41ab591b80c1e31ef17"
        },
        {
          "trelloUserName": "ekaterinasuvorova3",
          "slackUserId": "UPUUVUACF",
          "bitbucketAccount": "5db678c71dee710dad3edf9b"
        },
        {
          "trelloUserName": "stepanrodionov",
          "slackUserId": "U08KS9J68",
          "bitbucketAccount": "557058:a9a326ae-c936-4188-b6bd-d0017185ff1d"
        },
        {
          "trelloUserName": "user31756198",
          "slackUserId": "DT8JQ5JB1",
          "bitbucketAccount": "5aaf45132235812a623359a4"
        }
      ],
      "testers": [
        {
          "slackUserId": "UMFRHSKEY"
        }
      ]
    }
  ]
}
