{
  "server": {
    "port": 8090
  },
  "stateIdentifier": "master",
  "appHostName": "http://52.117.55.99:8090/",
  "pathToStorageFile": "/tmp/",
  "logger": {
    "slack": {
      "channel": "CPDK0R8JH",
      "token": "xoxb-760568235527-764030747632-3msPHU0lBch5gv1HmCqDEFf9"
    }
  },
  "trelloAuth": {
    "key": "0f9b51855eee640c2e9084dd55b8bf96",
    "token": "3d6a6de1c43a0721f90dab31bfdd0762847ae6a15a81e1a6abaae996ad426b7c"
  },
  "robotTrelloUserName": "antidaflowbot",
  "bitbucketAuth": {
    "key": "5Bzvfd6QJx5wHPZzhf",
    "secret": "etfFqa5nj8Wk98nL4F4Up9t2Aq2GpPAt"
  },
  "slackAuth": {
    "token": "xoxb-760568235527-764030747632-3msPHU0lBch5gv1HmCqDEFf9"
  },
  "projects": [
    {
      "name": "pneumatic-frontend",
      "productionBranchName": "master",
      "devServerBranchName": "dev",
      "board": {
        "id": "lyp1GoIG",
        "label": "frontend",
        "inReviewStatus": "Code Review",
        "stagingStatus": "Ready For Staging",
        "reopenedStatus": "To Do",
        "readyForTestingStatus": "Ready For Testing",
        "doneStatus": "Done",
        "inMasterStatus": "Ready For Prod",
        "inProductionStatus": "In Production"
      },
      "slack": {
        "channel": "CNEEGS60Y"
      },
      "bitbucket": {
        "repositoryName": "pneumatic-frontend",
        "repositoryAuthor": "antida-projects"
      },
      "jenkinsBuildDev": {
        "url": "jenkins.pneumatic.app",
        "protocol": "https",
        "userName": "admin",
        "userToken": "11f860d0594c26c57abb13a3c2ef895892",
        "jobName": "pneumatic-frontend",
        "jobToken": "11f860d0594c26c57abb13a3c2ef895892"
      },
      "users": [
        {
          "trelloUserName": "user31756198",
          "slackUserId": "UNB0K10CQ",
          "bitbucketAccount": "5aaf45132235812a623359a4"
        },
        {
          "trelloUserName": "yanpavlenko2",
          "slackUserId": "UT4DXBXGU",
          "bitbucketAccount": "5e2e78034fc4e10e7c25e7c3"
        },
        {
          "trelloUserName": "stepanrodionov",
          "slackUserId": "UNCSZAELE",
          "bitbucketAccount": "557058:c1177aa0-1fbc-4f1d-9c4a-3283cb5aa842"
        }
      ]
    },
    {
      "name": "pneumatic-backend",
      "productionBranchName": "master",
      "devServerBranchName": "dev",
      "board": {
        "id": "lyp1GoIG",
        "label": "backend",
        "inReviewStatus": "Code Review",
        "stagingStatus": "Ready For Staging",
        "reopenedStatus": "To Do",
        "readyForTestingStatus": "Ready For Testing",
        "doneStatus": "Done",
        "inMasterStatus": "Ready For Prod",
        "inProductionStatus": "In Production"
      },
      "slack": {
        "channel": "CNEEGS60Y"
      },
      "bitbucket": {
        "repositoryName": "pneumatic-backend",
        "repositoryAuthor": "antida-projects"
      },
      "jenkinsBuildDev": {
        "url": "jenkins.pneumatic.app",
        "protocol": "https",
        "userName": "admin",
        "userToken": "11f860d0594c26c57abb13a3c2ef895892",
        "jobName": "pneumatic-backend",
        "jobToken": "11f860d0594c26c57abb13a3c2ef895892"
      },
      "users": [
        {
          "trelloUserName": "user31756198",
          "slackUserId": "UNB0K10CQ",
          "bitbucketAccount": "5aaf45132235812a623359a4"
        },
        {
          "trelloUserName": "igorkulikov4",
          "slackUserId": "UPXLD3FU1",
          "bitbucketAccount": "5dc10bf89833ce0dfd82be6e"
        },
        {
          "trelloUserName": "stepanrodionov",
          "slackUserId": "UNCSZAELE",
          "bitbucketAccount": "557058:c1177aa0-1fbc-4f1d-9c4a-3283cb5aa842"
        }
      ]
    }
  ]
}
